…
nest_glm_res
```

    ## # A tibble: 94 x 6
    ##    city_state      term                   OR conf.low conf.high    p.value
    ##    <chr>           <chr>               <dbl>    <dbl>     <dbl>      <dbl>
    ##  1 Albuquerque, NM (Intercept)         4.35     2.27      8.57  0.0000134 
    ##  2 Albuquerque, NM victim_raceNonwhite 0.686    0.416     1.12  0.137     
    ##  3 Atlanta, GA     (Intercept)         2.89     1.47      5.81  0.00236   
    ##  4 Atlanta, GA     victim_raceNonwhite 0.767    0.433     1.32  0.348     
    ##  5 Baltimore, MD   (Intercept)         2.85     1.84      4.47  0.00000378
    ##  6 Baltimore, MD   victim_raceNonwhite 0.453    0.321     0.636 0.00000533
    ##  7 Baton Rouge, LA (Intercept)         4.39     1.73     11.9   0.00252   
    ##  8 Baton Rouge, LA victim_raceNonwhite 0.656    0.299     1.38  0.275     
    ##  9 Birmingham, AL  (Intercept)         1.85     0.941     3.66  0.0762    
    ## 10 Birmingham, AL  victim_raceNonwhite 1.05     0.619     1.76  0.862     
    ## # ... with 84 more rows
…
